…
                      'Setters (Irish)',
                      'Greater Swiss Mountain Dogs',
                      'Retrievers (Flat-Coated)',
                      'Setters (Gordon)',
                      'Pointers',
                      'Afghan Hounds',
                      'Black and Tan Coonhounds',
                      'Greyhounds',
                      'Redbone Coonhounds',
                      'Entlebucher Mountain Dogs',
                      'Scottish Deerhounds')) -> DogDataTidy
DogDataTidy
```

    ## # A tibble: 27 × 18
    ##    Breed                    number Affectionate With Fa…¹ Good With Young Chil…²
    ##    <chr>                     <int>                  <dbl>                  <dbl>
    ##  1 Retrievers (Labrador)         1                      5                      5
    ##  2 Pointers (German Shorth…      9                      5                      5
    ##  3 Australian Shepherds         12                      3                      5
    ##  4 Great Danes                  15                      5                      3
    ##  5 Doberman Pinschers           18                      5                      5
    ##  6 Bernese Mountain Dogs        22                      5                      5
    ##  7 Spaniels (Cocker)            30                      4                      5
    ##  8 Border Collies               32                      5                      3
    ##  9 Vizslas                      35                      5                      5
    ## 10 Collies                      40                      4                      5
    ## # ℹ 17 more rows
    ## # ℹ abbreviated names: ¹​`Affectionate With Family`, ²​`Good With Young Children`
    ## # ℹ 14 more variables: `Good With Other Dogs` <dbl>, `Shedding Level` <dbl>,
    ## #   `Coat Grooming Frequency` <dbl>, `Drooling Level` <dbl>, `Coat Type` <chr>,
    ## #   `Coat Length` <chr>, `Openness To Strangers` <dbl>,
    ## #   `Playfulness Level` <dbl>, `Watchdog/Protective Nature` <dbl>,
    ## #   `Adaptability Level` <dbl>, `Trainability Level` <dbl>, …
